"date";"account";"number";"mode";"payee";"comment";"quantity";"unit";"amount";"sign";"category";"status";"bookmarked";"id";"idtransaction";"idgroup"
"2015-07-07";"COURANT";"0";"Carte";"Tom";"Com 1";"1";"€";"1";"+";"Alimentation";"N";"N";"3";"2";"0"
"2015-07-08";"COURANT";"0";"Carte";"Tom";"Com 2";"2";"€";"2";"+";"Animaux";"N";"N";"4";"2";"0"
"2015-07-09";"COURANT";"0";"Carte";"Tom";"Com 3";"3";"€";"3";"+";"Automobile";"N";"N";"5";"2";"0"
