"Date","Type","Number","Payee","Withdrawal (-)","Amount"
"Pending Transactions are not reflected within this sort criterion."
"Posted Transactions"
"12/31/2018","INTADJUST","","Interest Paid","","$2.51"
