number;date;mode;payee;comment;status;bookmarked;imported;account;unit;category;value
1005;06/01/1994;;Bank Of Mortgage;;N;N;Y;Courant steph;euro;[linda];-1000
0;06/02/1994;;Deposit;;N;N;Y;Courant steph;euro;;75
0;06/03/1994;;Anthony Hopkins;Film;N;N;Y;Courant steph;euro;Entertain > Movie;-10
